// Jest Snapshot v1, https://goo.gl/fbAQLP

exports[`components | Scheduler.tsx Should render correctly 1`] = `
<div
  className="ts-react-scheduler"
  id="TsdevReactScheduler"
>
  <div
    className="app-header-wrapper"
    style={
      Object {
        "display": "flex",
      }
    }
  >
    <div
      className="header-component"
    >
      <div
        className="header-title-wrapper"
      >
        <div
          className="header-title-component"
          style={
            Object {
              "display": "flex",
            }
          }
        >
          <p
            className="MuiTypography-root MuiTypography-body1"
          >
            Tsdev React Scheduler
          </p>
        </div>
      </div>
      <div
        className="header-actions-wrapper"
      >
        <div
          className="header-action-component"
          style={
            Object {
              "display": "flex",
            }
          }
        >
          <div
            className="header-action-btn-group-component"
            style={
              Object {
                "display": "flex",
              }
            }
          >
            <div
              aria-label="outlined primary button group"
              className="MuiButtonGroup-root"
              role="group"
            >
              <button
                className="MuiButtonBase-root MuiButton-root MuiButton-contained MuiButtonGroup-grouped MuiButtonGroup-groupedHorizontal MuiButtonGroup-groupedOutlined MuiButtonGroup-groupedOutlinedHorizontal MuiButtonGroup-groupedOutlinedPrimary header-btn-day MuiButton-containedPrimary MuiButton-containedSizeSmall MuiButton-sizeSmall"
                disabled={false}
                id="TsdevReactScheduler_headerBtnDay"
                onBlur={[Function]}
                onClick={[Function]}
                onDragLeave={[Function]}
                onFocus={[Function]}
                onKeyDown={[Function]}
                onKeyUp={[Function]}
                onMouseDown={[Function]}
                onMouseLeave={[Function]}
                onMouseUp={[Function]}
                onTouchEnd={[Function]}
                onTouchMove={[Function]}
                onTouchStart={[Function]}
                tabIndex={0}
                type="button"
              >
                <span
                  className="MuiButton-label"
                >
                  Day
                </span>
                <span
                  className="MuiTouchRipple-root"
                />
              </button>
              <button
                className="MuiButtonBase-root MuiButton-root MuiButton-outlined MuiButtonGroup-grouped MuiButtonGroup-groupedHorizontal MuiButtonGroup-groupedOutlined MuiButtonGroup-groupedOutlinedHorizontal MuiButtonGroup-groupedOutlinedPrimary header-btn-week MuiButton-outlinedPrimary MuiButton-outlinedSizeSmall MuiButton-sizeSmall"
                disabled={false}
                id="TsdevReactScheduler_headerBtnWeek"
                onBlur={[Function]}
                onClick={[Function]}
                onDragLeave={[Function]}
                onFocus={[Function]}
                onKeyDown={[Function]}
                onKeyUp={[Function]}
                onMouseDown={[Function]}
                onMouseLeave={[Function]}
                onMouseUp={[Function]}
                onTouchEnd={[Function]}
                onTouchMove={[Function]}
                onTouchStart={[Function]}
                tabIndex={0}
                type="button"
              >
                <span
                  className="MuiButton-label"
                >
                  Week
                </span>
                <span
                  className="MuiTouchRipple-root"
                />
              </button>
              <button
                className="MuiButtonBase-root MuiButton-root MuiButton-outlined MuiButtonGroup-grouped MuiButtonGroup-groupedHorizontal MuiButtonGroup-groupedOutlined MuiButtonGroup-groupedOutlinedHorizontal MuiButtonGroup-groupedOutlinedPrimary header-btn-month MuiButton-outlinedPrimary MuiButton-outlinedSizeSmall MuiButton-sizeSmall"
                disabled={false}
                id="TsdevReactScheduler_headerBtnMonth"
                onBlur={[Function]}
                onClick={[Function]}
                onDragLeave={[Function]}
                onFocus={[Function]}
                onKeyDown={[Function]}
                onKeyUp={[Function]}
                onMouseDown={[Function]}
                onMouseLeave={[Function]}
                onMouseUp={[Function]}
                onTouchEnd={[Function]}
                onTouchMove={[Function]}
                onTouchStart={[Function]}
                tabIndex={0}
                type="button"
              >
                <span
                  className="MuiButton-label"
                >
                  Month
                </span>
                <span
                  className="MuiTouchRipple-root"
                />
              </button>
              <button
                className="MuiButtonBase-root MuiButton-root MuiButton-outlined MuiButtonGroup-grouped MuiButtonGroup-groupedHorizontal MuiButtonGroup-groupedOutlined MuiButtonGroup-groupedOutlinedHorizontal MuiButtonGroup-groupedOutlinedPrimary header-btn-year MuiButton-outlinedPrimary MuiButton-outlinedSizeSmall MuiButton-sizeSmall"
                disabled={false}
                id="TsdevReactScheduler_headerBtnYear"
                onBlur={[Function]}
                onClick={[Function]}
                onDragLeave={[Function]}
                onFocus={[Function]}
                onKeyDown={[Function]}
                onKeyUp={[Function]}
                onMouseDown={[Function]}
                onMouseLeave={[Function]}
                onMouseUp={[Function]}
                onTouchEnd={[Function]}
                onTouchMove={[Function]}
                onTouchStart={[Function]}
                tabIndex={0}
                type="button"
              >
                <span
                  className="MuiButton-label"
                >
                  Year
                </span>
                <span
                  className="MuiTouchRipple-root"
                />
              </button>
            </div>
          </div>
          <div
            className="header-action-date-component"
            style={
              Object {
                "display": "flex",
              }
            }
          >
            <p
              className="MuiTypography-root MuiTypography-body1"
            >
               
              2020-10-01
            </p>
          </div>
          <div
            className="header-action-nav-group-component"
            style={
              Object {
                "display": "flex",
              }
            }
          >
            <span
              aria-describedby={null}
              className=""
              onBlur={[Function]}
              onFocus={[Function]}
              onMouseLeave={[Function]}
              onMouseOver={[Function]}
              onTouchEnd={[Function]}
              onTouchStart={[Function]}
              title="Previous"
            >
              <button
                className="MuiButtonBase-root MuiIconButton-root header-action-nav-left MuiIconButton-sizeSmall"
                disabled={false}
                id="TsdevReactScheduler_headerActionNavLeft"
                onBlur={[Function]}
                onClick={[Function]}
                onDragLeave={[Function]}
                onFocus={[Function]}
                onKeyDown={[Function]}
                onKeyUp={[Function]}
                onMouseDown={[Function]}
                onMouseLeave={[Function]}
                onMouseUp={[Function]}
                onTouchEnd={[Function]}
                onTouchMove={[Function]}
                onTouchStart={[Function]}
                tabIndex={0}
                type="button"
              >
                <span
                  className="MuiIconButton-label"
                >
                  <svg
                    aria-hidden={true}
                    className="MuiSvgIcon-root MuiSvgIcon-fontSizeSmall"
                    focusable="false"
                    viewBox="0 0 24 24"
                  >
                    <path
                      d="M15.41 7.41L14 6l-6 6 6 6 1.41-1.41L10.83 12z"
                    />
                  </svg>
                </span>
                <span
                  className="MuiTouchRipple-root"
                />
              </button>
            </span>
            <button
              className="MuiButtonBase-root MuiButton-root MuiButton-text header-action-nav-today MuiButton-textPrimary MuiButton-textSizeSmall MuiButton-sizeSmall"
              disabled={false}
              id="TsdevReactScheduler_headerActionNavToday"
              onBlur={[Function]}
              onClick={[Function]}
              onDragLeave={[Function]}
              onFocus={[Function]}
              onKeyDown={[Function]}
              onKeyUp={[Function]}
              onMouseDown={[Function]}
              onMouseLeave={[Function]}
              onMouseUp={[Function]}
              onTouchEnd={[Function]}
              onTouchMove={[Function]}
              onTouchStart={[Function]}
              tabIndex={0}
              type="button"
            >
              <span
                className="MuiButton-label"
              >
                Today
              </span>
              <span
                className="MuiTouchRipple-root"
              />
            </button>
            <span
              aria-describedby={null}
              className=""
              onBlur={[Function]}
              onFocus={[Function]}
              onMouseLeave={[Function]}
              onMouseOver={[Function]}
              onTouchEnd={[Function]}
              onTouchStart={[Function]}
              title="Next"
            >
              <button
                className="MuiButtonBase-root MuiIconButton-root header-action-nav-right MuiIconButton-sizeSmall"
                disabled={false}
                id="TsdevReactScheduler_headerActionNavRight"
                onBlur={[Function]}
                onClick={[Function]}
                onDragLeave={[Function]}
                onFocus={[Function]}
                onKeyDown={[Function]}
                onKeyUp={[Function]}
                onMouseDown={[Function]}
                onMouseLeave={[Function]}
                onMouseUp={[Function]}
                onTouchEnd={[Function]}
                onTouchMove={[Function]}
                onTouchStart={[Function]}
                tabIndex={0}
                type="button"
              >
                <span
                  className="MuiIconButton-label"
                >
                  <svg
                    aria-hidden={true}
                    className="MuiSvgIcon-root MuiSvgIcon-fontSizeSmall"
                    focusable="false"
                    viewBox="0 0 24 24"
                  >
                    <path
                      d="M10 6L8.59 7.41 13.17 12l-4.58 4.59L10 18l6-6z"
                    />
                  </svg>
                </span>
                <span
                  className="MuiTouchRipple-root"
                />
              </button>
            </span>
          </div>
        </div>
      </div>
      <div
        className="header-long-lasting-wrapper"
      >
        <div
          className="header-long-lasting-component"
          style={
            Object {
              "display": "flex",
            }
          }
        >
          <div
            className="header-long-lasting-items"
          >
            <div
              className="MuiPaper-root MuiAlert-root MuiAlert-standardInfo MuiPaper-elevation0"
              role="alert"
              style={
                Object {
                  "display": "none",
                }
              }
            >
              <div
                className="MuiAlert-icon"
              >
                <svg
                  aria-hidden={true}
                  className="MuiSvgIcon-root MuiSvgIcon-fontSizeInherit"
                  focusable="false"
                  viewBox="0 0 24 24"
                >
                  <path
                    d="M11,9H13V7H11M12,20C7.59,20 4,16.41 4,12C4,7.59 7.59,4 12,4C16.41,4 20,7.59 20, 12C20,16.41 16.41,20 12,20M12,2A10,10 0 0,0 2,12A10,10 0 0,0 12,22A10,10 0 0,0 22,12A10, 10 0 0,0 12,2M11,17H13V11H11V17Z"
                  />
                </svg>
              </div>
              <div
                className="MuiAlert-message"
              >
                No data
              </div>
            </div>
            <div
              className="long-scaled-item"
              data-attribute-event-id="idC"
              onClick={[Function]}
              style={
                Object {
                  "backgroundColor": "#5c6bc0",
                }
              }
            >
              <span
                className="MuiTypography-root MuiTypography-caption"
              >
                03:00
                 
                : 
                Demo Event C
              </span>
            </div>
            <div
              className="long-scaled-item"
              data-attribute-event-id="idB"
              onClick={[Function]}
              style={
                Object {
                  "backgroundColor": "#42a5f5",
                }
              }
            >
              <span
                className="MuiTypography-root MuiTypography-caption"
              >
                03:05
                 
                : 
                Demo Event B
              </span>
            </div>
            <div
              className="long-scaled-item"
              data-attribute-event-id="idD"
              onClick={[Function]}
              style={
                Object {
                  "backgroundColor": "#7986cb",
                }
              }
            >
              <span
                className="MuiTypography-root MuiTypography-caption"
              >
                03:30
                 
                : 
                Demo Event D
              </span>
            </div>
            <div
              className="long-scaled-item"
              data-attribute-event-id="idE"
              onClick={[Function]}
              style={
                Object {
                  "backgroundColor": "#5c6bc0",
                }
              }
            >
              <span
                className="MuiTypography-root MuiTypography-caption"
              >
                03:35
                 
                : 
                Demo Event E
              </span>
            </div>
            <div
              className="long-scaled-item"
              data-attribute-event-id="idA"
              onClick={[Function]}
              style={
                Object {
                  "backgroundColor": "#64b5f6",
                }
              }
            >
              <span
                className="MuiTypography-root MuiTypography-caption"
              >
                03:45
                 
                : 
                Demo Event A
              </span>
            </div>
          </div>
        </div>
      </div>
    </div>
  </div>
  <div
    className="app-content-wrapper"
  >
    <div
      className="content-component"
    >
      <div
        className="content-scale"
      >
        <div
          className="content-scale-component"
        >
          <div
            className="time-column"
            style={
              Object {
                "display": "flex",
              }
            }
          />
          <div
            className="event-column"
          >
            <div
              className="scale-day"
            >
              <p
                className="MuiTypography-root MuiTypography-body2"
              >
                Thursday
              </p>
            </div>
          </div>
        </div>
      </div>
      <div
        className="content-event-grid"
        style={
          Object {
            "height": 300,
          }
        }
      >
        <div
          className="content-day-component"
        >
          <div
            className="time-column"
          >
            <div
              className="time-slot"
              data-attribute-from={0}
              data-attribute-to={1}
              onDoubleClick={[Function]}
            >
              <span
                className="MuiTypography-root MuiTypography-caption"
              >
                00:00
              </span>
            </div>
            <div
              className="time-slot"
              data-attribute-from={1}
              data-attribute-to={2}
              onDoubleClick={[Function]}
            >
              <span
                className="MuiTypography-root MuiTypography-caption"
              >
                01:00
              </span>
            </div>
            <div
              className="time-slot"
              data-attribute-from={2}
              data-attribute-to={3}
              onDoubleClick={[Function]}
            >
              <span
                className="MuiTypography-root MuiTypography-caption"
              >
                02:00
              </span>
            </div>
            <div
              className="time-slot"
              data-attribute-from={3}
              data-attribute-to={4}
              onDoubleClick={[Function]}
            >
              <span
                className="MuiTypography-root MuiTypography-caption"
              >
                03:00
              </span>
            </div>
            <div
              className="time-slot"
              data-attribute-from={4}
              data-attribute-to={5}
              onDoubleClick={[Function]}
            >
              <span
                className="MuiTypography-root MuiTypography-caption"
              >
                04:00
              </span>
            </div>
            <div
              className="time-slot"
              data-attribute-from={5}
              data-attribute-to={6}
              onDoubleClick={[Function]}
            >
              <span
                className="MuiTypography-root MuiTypography-caption"
              >
                05:00
              </span>
            </div>
            <div
              className="time-slot"
              data-attribute-from={6}
              data-attribute-to={7}
              onDoubleClick={[Function]}
            >
              <span
                className="MuiTypography-root MuiTypography-caption"
              >
                06:00
              </span>
            </div>
            <div
              className="time-slot"
              data-attribute-from={7}
              data-attribute-to={8}
              onDoubleClick={[Function]}
            >
              <span
                className="MuiTypography-root MuiTypography-caption"
              >
                07:00
              </span>
            </div>
            <div
              className="time-slot"
              data-attribute-from={8}
              data-attribute-to={9}
              onDoubleClick={[Function]}
            >
              <span
                className="MuiTypography-root MuiTypography-caption"
              >
                08:00
              </span>
            </div>
            <div
              className="time-slot"
              data-attribute-from={9}
              data-attribute-to={10}
              onDoubleClick={[Function]}
            >
              <span
                className="MuiTypography-root MuiTypography-caption"
              >
                09:00
              </span>
            </div>
            <div
              className="time-slot"
              data-attribute-from={10}
              data-attribute-to={11}
              onDoubleClick={[Function]}
            >
              <span
                className="MuiTypography-root MuiTypography-caption"
              >
                10:00
              </span>
            </div>
            <div
              className="time-slot"
              data-attribute-from={11}
              data-attribute-to={12}
              onDoubleClick={[Function]}
            >
              <span
                className="MuiTypography-root MuiTypography-caption"
              >
                11:00
              </span>
            </div>
            <div
              className="time-slot"
              data-attribute-from={12}
              data-attribute-to={13}
              onDoubleClick={[Function]}
            >
              <span
                className="MuiTypography-root MuiTypography-caption"
              >
                12:00
              </span>
            </div>
            <div
              className="time-slot"
              data-attribute-from={13}
              data-attribute-to={14}
              onDoubleClick={[Function]}
            >
              <span
                className="MuiTypography-root MuiTypography-caption"
              >
                13:00
              </span>
            </div>
            <div
              className="time-slot"
              data-attribute-from={14}
              data-attribute-to={15}
              onDoubleClick={[Function]}
            >
              <span
                className="MuiTypography-root MuiTypography-caption"
              >
                14:00
              </span>
            </div>
            <div
              className="time-slot"
              data-attribute-from={15}
              data-attribute-to={16}
              onDoubleClick={[Function]}
            >
              <span
                className="MuiTypography-root MuiTypography-caption"
              >
                15:00
              </span>
            </div>
            <div
              className="time-slot"
              data-attribute-from={16}
              data-attribute-to={17}
              onDoubleClick={[Function]}
            >
              <span
                className="MuiTypography-root MuiTypography-caption"
              >
                16:00
              </span>
            </div>
            <div
              className="time-slot"
              data-attribute-from={17}
              data-attribute-to={18}
              onDoubleClick={[Function]}
            >
              <span
                className="MuiTypography-root MuiTypography-caption"
              >
                17:00
              </span>
            </div>
            <div
              className="time-slot"
              data-attribute-from={18}
              data-attribute-to={19}
              onDoubleClick={[Function]}
            >
              <span
                className="MuiTypography-root MuiTypography-caption"
              >
                18:00
              </span>
            </div>
            <div
              className="time-slot"
              data-attribute-from={19}
              data-attribute-to={20}
              onDoubleClick={[Function]}
            >
              <span
                className="MuiTypography-root MuiTypography-caption"
              >
                19:00
              </span>
            </div>
            <div
              className="time-slot"
              data-attribute-from={20}
              data-attribute-to={21}
              onDoubleClick={[Function]}
            >
              <span
                className="MuiTypography-root MuiTypography-caption"
              >
                20:00
              </span>
            </div>
            <div
              className="time-slot"
              data-attribute-from={21}
              data-attribute-to={22}
              onDoubleClick={[Function]}
            >
              <span
                className="MuiTypography-root MuiTypography-caption"
              >
                21:00
              </span>
            </div>
            <div
              className="time-slot"
              data-attribute-from={22}
              data-attribute-to={23}
              onDoubleClick={[Function]}
            >
              <span
                className="MuiTypography-root MuiTypography-caption"
              >
                22:00
              </span>
            </div>
            <div
              className="time-slot"
              data-attribute-from={23}
              data-attribute-to={24}
              onDoubleClick={[Function]}
            >
              <span
                className="MuiTypography-root MuiTypography-caption"
              >
                23:00
              </span>
            </div>
          </div>
          <div
            className="event-column"
            id="eventColumn"
          >
            <div
              className="event-slot"
              data-attribute-from={0}
              data-attribute-to={1}
              onDoubleClick={[Function]}
            />
            <div
              className="event-slot"
              data-attribute-from={1}
              data-attribute-to={2}
              onDoubleClick={[Function]}
            />
            <div
              className="event-slot"
              data-attribute-from={2}
              data-attribute-to={3}
              onDoubleClick={[Function]}
            />
            <div
              className="event-slot"
              data-attribute-from={3}
              data-attribute-to={4}
              onDoubleClick={[Function]}
            >
              <div
                className="event-item"
                data-attribute-event-id="idC"
                onClick={[Function]}
                style={
                  Object {
                    "backgroundColor": "#5c6bc0",
                    "height": 88,
                    "top": 0,
                    "width": "calc(100% / 5)",
                  }
                }
              >
                <div
                  className="content"
                >
                  <span
                    className="MuiTypography-root MuiTypography-caption"
                  >
                    03:00 : Demo Event C
                  </span>
                </div>
              </div>
              <div
                className="event-item"
                data-attribute-event-id="idB"
                onClick={[Function]}
                style={
                  Object {
                    "backgroundColor": "#42a5f5",
                    "height": 106.33333333333333,
                    "top": 3.6666666666666665,
                    "width": "calc(100% / 5)",
                  }
                }
              >
                <div
                  className="content"
                >
                  <span
                    className="MuiTypography-root MuiTypography-caption"
                  >
                    03:05 : Demo Event B
                  </span>
                </div>
              </div>
              <div
                className="event-item"
                data-attribute-event-id="idD"
                onClick={[Function]}
                style={
                  Object {
                    "backgroundColor": "#7986cb",
                    "height": 66,
                    "top": 22,
                    "width": "calc(100% / 5)",
                  }
                }
              >
                <div
                  className="content"
                >
                  <span
                    className="MuiTypography-root MuiTypography-caption"
                  >
                    03:30 : Demo Event D
                  </span>
                </div>
              </div>
              <div
                className="event-item"
                data-attribute-event-id="idE"
                onClick={[Function]}
                style={
                  Object {
                    "backgroundColor": "#5c6bc0",
                    "height": 231,
                    "top": 25.666666666666664,
                    "width": "calc(100% / 5)",
                  }
                }
              >
                <div
                  className="content"
                >
                  <span
                    className="MuiTypography-root MuiTypography-caption"
                  >
                    03:35 : Demo Event E
                  </span>
                </div>
              </div>
              <div
                className="event-item"
                data-attribute-event-id="idA"
                onClick={[Function]}
                style={
                  Object {
                    "backgroundColor": "#64b5f6",
                    "height": 33,
                    "top": 33,
                    "width": "calc(100% / 5)",
                  }
                }
              >
                <div
                  className="content"
                >
                  <span
                    className="MuiTypography-root MuiTypography-caption"
                  >
                    03:45 : Demo Event A
                  </span>
                </div>
              </div>
            </div>
            <div
              className="event-slot"
              data-attribute-from={4}
              data-attribute-to={5}
              onDoubleClick={[Function]}
            />
            <div
              className="event-slot"
              data-attribute-from={5}
              data-attribute-to={6}
              onDoubleClick={[Function]}
            />
            <div
              className="event-slot"
              data-attribute-from={6}
              data-attribute-to={7}
              onDoubleClick={[Function]}
            />
            <div
              className="event-slot"
              data-attribute-from={7}
              data-attribute-to={8}
              onDoubleClick={[Function]}
            />
            <div
              className="event-slot"
              data-attribute-from={8}
              data-attribute-to={9}
              onDoubleClick={[Function]}
            />
            <div
              className="event-slot"
              data-attribute-from={9}
              data-attribute-to={10}
              onDoubleClick={[Function]}
            />
            <div
              className="event-slot"
              data-attribute-from={10}
              data-attribute-to={11}
              onDoubleClick={[Function]}
            />
            <div
              className="event-slot"
              data-attribute-from={11}
              data-attribute-to={12}
              onDoubleClick={[Function]}
            />
            <div
              className="event-slot"
              data-attribute-from={12}
              data-attribute-to={13}
              onDoubleClick={[Function]}
            />
            <div
              className="event-slot"
              data-attribute-from={13}
              data-attribute-to={14}
              onDoubleClick={[Function]}
            />
            <div
              className="event-slot"
              data-attribute-from={14}
              data-attribute-to={15}
              onDoubleClick={[Function]}
            />
            <div
              className="event-slot"
              data-attribute-from={15}
              data-attribute-to={16}
              onDoubleClick={[Function]}
            />
            <div
              className="event-slot"
              data-attribute-from={16}
              data-attribute-to={17}
              onDoubleClick={[Function]}
            />
            <div
              className="event-slot"
              data-attribute-from={17}
              data-attribute-to={18}
              onDoubleClick={[Function]}
            />
            <div
              className="event-slot"
              data-attribute-from={18}
              data-attribute-to={19}
              onDoubleClick={[Function]}
            />
            <div
              className="event-slot"
              data-attribute-from={19}
              data-attribute-to={20}
              onDoubleClick={[Function]}
            />
            <div
              className="event-slot"
              data-attribute-from={20}
              data-attribute-to={21}
              onDoubleClick={[Function]}
            />
            <div
              className="event-slot"
              data-attribute-from={21}
              data-attribute-to={22}
              onDoubleClick={[Function]}
            />
            <div
              className="event-slot"
              data-attribute-from={22}
              data-attribute-to={23}
              onDoubleClick={[Function]}
            />
            <div
              className="event-slot"
              data-attribute-from={23}
              data-attribute-to={24}
              onDoubleClick={[Function]}
            />
          </div>
        </div>
      </div>
      <div
        className="dialog-component"
        data-testid="dialog-component"
      />
    </div>
  </div>
</div>
`;
