// Jest Snapshot v1, https://goo.gl/fbAQLP

exports[`components | content | ContentWeek.tsx Should render correctly 1`] = `
<div
  className="content-week-component"
>
  <div
    className="time-column"
  >
    <div
      className="time-slot"
    >
      <span
        className="MuiTypography-root MuiTypography-caption"
      >
        00:00
      </span>
    </div>
    <div
      className="time-slot"
    >
      <span
        className="MuiTypography-root MuiTypography-caption"
      >
        01:00
      </span>
    </div>
    <div
      className="time-slot"
    >
      <span
        className="MuiTypography-root MuiTypography-caption"
      >
        02:00
      </span>
    </div>
    <div
      className="time-slot"
    >
      <span
        className="MuiTypography-root MuiTypography-caption"
      >
        03:00
      </span>
    </div>
    <div
      className="time-slot"
    >
      <span
        className="MuiTypography-root MuiTypography-caption"
      >
        04:00
      </span>
    </div>
    <div
      className="time-slot"
    >
      <span
        className="MuiTypography-root MuiTypography-caption"
      >
        05:00
      </span>
    </div>
    <div
      className="time-slot"
    >
      <span
        className="MuiTypography-root MuiTypography-caption"
      >
        06:00
      </span>
    </div>
    <div
      className="time-slot"
    >
      <span
        className="MuiTypography-root MuiTypography-caption"
      >
        07:00
      </span>
    </div>
    <div
      className="time-slot"
    >
      <span
        className="MuiTypography-root MuiTypography-caption"
      >
        08:00
      </span>
    </div>
    <div
      className="time-slot"
    >
      <span
        className="MuiTypography-root MuiTypography-caption"
      >
        09:00
      </span>
    </div>
    <div
      className="time-slot"
    >
      <span
        className="MuiTypography-root MuiTypography-caption"
      >
        10:00
      </span>
    </div>
    <div
      className="time-slot"
    >
      <span
        className="MuiTypography-root MuiTypography-caption"
      >
        11:00
      </span>
    </div>
    <div
      className="time-slot"
    >
      <span
        className="MuiTypography-root MuiTypography-caption"
      >
        12:00
      </span>
    </div>
    <div
      className="time-slot"
    >
      <span
        className="MuiTypography-root MuiTypography-caption"
      >
        13:00
      </span>
    </div>
    <div
      className="time-slot"
    >
      <span
        className="MuiTypography-root MuiTypography-caption"
      >
        14:00
      </span>
    </div>
    <div
      className="time-slot"
    >
      <span
        className="MuiTypography-root MuiTypography-caption"
      >
        15:00
      </span>
    </div>
    <div
      className="time-slot"
    >
      <span
        className="MuiTypography-root MuiTypography-caption"
      >
        16:00
      </span>
    </div>
    <div
      className="time-slot"
    >
      <span
        className="MuiTypography-root MuiTypography-caption"
      >
        17:00
      </span>
    </div>
    <div
      className="time-slot"
    >
      <span
        className="MuiTypography-root MuiTypography-caption"
      >
        18:00
      </span>
    </div>
    <div
      className="time-slot"
    >
      <span
        className="MuiTypography-root MuiTypography-caption"
      >
        19:00
      </span>
    </div>
    <div
      className="time-slot"
    >
      <span
        className="MuiTypography-root MuiTypography-caption"
      >
        20:00
      </span>
    </div>
    <div
      className="time-slot"
    >
      <span
        className="MuiTypography-root MuiTypography-caption"
      >
        21:00
      </span>
    </div>
    <div
      className="time-slot"
    >
      <span
        className="MuiTypography-root MuiTypography-caption"
      >
        22:00
      </span>
    </div>
    <div
      className="time-slot"
    >
      <span
        className="MuiTypography-root MuiTypography-caption"
      >
        23:00
      </span>
    </div>
  </div>
  <div
    className="event-column"
  >
    <div
      className="event-slot"
    >
      <div
        className="event-slot-item active"
        data-attribute-from={0}
        data-attribute-to={1}
      />
      <div
        className="event-slot-item"
        data-attribute-from={0}
        data-attribute-to={1}
      />
      <div
        className="event-slot-item"
        data-attribute-from={0}
        data-attribute-to={1}
      />
      <div
        className="event-slot-item"
        data-attribute-from={0}
        data-attribute-to={1}
      />
      <div
        className="event-slot-item"
        data-attribute-from={0}
        data-attribute-to={1}
      />
      <div
        className="event-slot-item"
        data-attribute-from={0}
        data-attribute-to={1}
      />
      <div
        className="event-slot-item"
        data-attribute-from={0}
        data-attribute-to={1}
      />
    </div>
    <div
      className="event-slot"
    >
      <div
        className="event-slot-item active"
        data-attribute-from={1}
        data-attribute-to={2}
      />
      <div
        className="event-slot-item"
        data-attribute-from={1}
        data-attribute-to={2}
      />
      <div
        className="event-slot-item"
        data-attribute-from={1}
        data-attribute-to={2}
      />
      <div
        className="event-slot-item"
        data-attribute-from={1}
        data-attribute-to={2}
      />
      <div
        className="event-slot-item"
        data-attribute-from={1}
        data-attribute-to={2}
      />
      <div
        className="event-slot-item"
        data-attribute-from={1}
        data-attribute-to={2}
      />
      <div
        className="event-slot-item"
        data-attribute-from={1}
        data-attribute-to={2}
      />
    </div>
    <div
      className="event-slot"
    >
      <div
        className="event-slot-item active"
        data-attribute-from={2}
        data-attribute-to={3}
      />
      <div
        className="event-slot-item"
        data-attribute-from={2}
        data-attribute-to={3}
      />
      <div
        className="event-slot-item"
        data-attribute-from={2}
        data-attribute-to={3}
      />
      <div
        className="event-slot-item"
        data-attribute-from={2}
        data-attribute-to={3}
      />
      <div
        className="event-slot-item"
        data-attribute-from={2}
        data-attribute-to={3}
      />
      <div
        className="event-slot-item"
        data-attribute-from={2}
        data-attribute-to={3}
      />
      <div
        className="event-slot-item"
        data-attribute-from={2}
        data-attribute-to={3}
      />
    </div>
    <div
      className="event-slot"
    >
      <div
        className="event-slot-item active"
        data-attribute-from={3}
        data-attribute-to={4}
      />
      <div
        className="event-slot-item"
        data-attribute-from={3}
        data-attribute-to={4}
      />
      <div
        className="event-slot-item"
        data-attribute-from={3}
        data-attribute-to={4}
      />
      <div
        className="event-slot-item"
        data-attribute-from={3}
        data-attribute-to={4}
      />
      <div
        className="event-slot-item"
        data-attribute-from={3}
        data-attribute-to={4}
      />
      <div
        className="event-slot-item"
        data-attribute-from={3}
        data-attribute-to={4}
      />
      <div
        className="event-slot-item"
        data-attribute-from={3}
        data-attribute-to={4}
      />
    </div>
    <div
      className="event-slot"
    >
      <div
        className="event-slot-item active"
        data-attribute-from={4}
        data-attribute-to={5}
      />
      <div
        className="event-slot-item"
        data-attribute-from={4}
        data-attribute-to={5}
      />
      <div
        className="event-slot-item"
        data-attribute-from={4}
        data-attribute-to={5}
      />
      <div
        className="event-slot-item"
        data-attribute-from={4}
        data-attribute-to={5}
      />
      <div
        className="event-slot-item"
        data-attribute-from={4}
        data-attribute-to={5}
      />
      <div
        className="event-slot-item"
        data-attribute-from={4}
        data-attribute-to={5}
      />
      <div
        className="event-slot-item"
        data-attribute-from={4}
        data-attribute-to={5}
      />
    </div>
    <div
      className="event-slot"
    >
      <div
        className="event-slot-item active"
        data-attribute-from={5}
        data-attribute-to={6}
      />
      <div
        className="event-slot-item"
        data-attribute-from={5}
        data-attribute-to={6}
      />
      <div
        className="event-slot-item"
        data-attribute-from={5}
        data-attribute-to={6}
      />
      <div
        className="event-slot-item"
        data-attribute-from={5}
        data-attribute-to={6}
      />
      <div
        className="event-slot-item"
        data-attribute-from={5}
        data-attribute-to={6}
      />
      <div
        className="event-slot-item"
        data-attribute-from={5}
        data-attribute-to={6}
      />
      <div
        className="event-slot-item"
        data-attribute-from={5}
        data-attribute-to={6}
      />
    </div>
    <div
      className="event-slot"
    >
      <div
        className="event-slot-item active"
        data-attribute-from={6}
        data-attribute-to={7}
      />
      <div
        className="event-slot-item"
        data-attribute-from={6}
        data-attribute-to={7}
      />
      <div
        className="event-slot-item"
        data-attribute-from={6}
        data-attribute-to={7}
      />
      <div
        className="event-slot-item"
        data-attribute-from={6}
        data-attribute-to={7}
      />
      <div
        className="event-slot-item"
        data-attribute-from={6}
        data-attribute-to={7}
      />
      <div
        className="event-slot-item"
        data-attribute-from={6}
        data-attribute-to={7}
      />
      <div
        className="event-slot-item"
        data-attribute-from={6}
        data-attribute-to={7}
      />
    </div>
    <div
      className="event-slot"
    >
      <div
        className="event-slot-item active"
        data-attribute-from={7}
        data-attribute-to={8}
      />
      <div
        className="event-slot-item"
        data-attribute-from={7}
        data-attribute-to={8}
      />
      <div
        className="event-slot-item"
        data-attribute-from={7}
        data-attribute-to={8}
      />
      <div
        className="event-slot-item"
        data-attribute-from={7}
        data-attribute-to={8}
      />
      <div
        className="event-slot-item"
        data-attribute-from={7}
        data-attribute-to={8}
      />
      <div
        className="event-slot-item"
        data-attribute-from={7}
        data-attribute-to={8}
      />
      <div
        className="event-slot-item"
        data-attribute-from={7}
        data-attribute-to={8}
      />
    </div>
    <div
      className="event-slot"
    >
      <div
        className="event-slot-item active"
        data-attribute-from={8}
        data-attribute-to={9}
      />
      <div
        className="event-slot-item"
        data-attribute-from={8}
        data-attribute-to={9}
      />
      <div
        className="event-slot-item"
        data-attribute-from={8}
        data-attribute-to={9}
      />
      <div
        className="event-slot-item"
        data-attribute-from={8}
        data-attribute-to={9}
      />
      <div
        className="event-slot-item"
        data-attribute-from={8}
        data-attribute-to={9}
      />
      <div
        className="event-slot-item"
        data-attribute-from={8}
        data-attribute-to={9}
      />
      <div
        className="event-slot-item"
        data-attribute-from={8}
        data-attribute-to={9}
      />
    </div>
    <div
      className="event-slot"
    >
      <div
        className="event-slot-item active"
        data-attribute-from={9}
        data-attribute-to={10}
      />
      <div
        className="event-slot-item"
        data-attribute-from={9}
        data-attribute-to={10}
      />
      <div
        className="event-slot-item"
        data-attribute-from={9}
        data-attribute-to={10}
      />
      <div
        className="event-slot-item"
        data-attribute-from={9}
        data-attribute-to={10}
      />
      <div
        className="event-slot-item"
        data-attribute-from={9}
        data-attribute-to={10}
      />
      <div
        className="event-slot-item"
        data-attribute-from={9}
        data-attribute-to={10}
      />
      <div
        className="event-slot-item"
        data-attribute-from={9}
        data-attribute-to={10}
      />
    </div>
    <div
      className="event-slot"
    >
      <div
        className="event-slot-item active"
        data-attribute-from={10}
        data-attribute-to={11}
      />
      <div
        className="event-slot-item"
        data-attribute-from={10}
        data-attribute-to={11}
      />
      <div
        className="event-slot-item"
        data-attribute-from={10}
        data-attribute-to={11}
      />
      <div
        className="event-slot-item"
        data-attribute-from={10}
        data-attribute-to={11}
      />
      <div
        className="event-slot-item"
        data-attribute-from={10}
        data-attribute-to={11}
      />
      <div
        className="event-slot-item"
        data-attribute-from={10}
        data-attribute-to={11}
      />
      <div
        className="event-slot-item"
        data-attribute-from={10}
        data-attribute-to={11}
      />
    </div>
    <div
      className="event-slot"
    >
      <div
        className="event-slot-item active"
        data-attribute-from={11}
        data-attribute-to={12}
      />
      <div
        className="event-slot-item"
        data-attribute-from={11}
        data-attribute-to={12}
      />
      <div
        className="event-slot-item"
        data-attribute-from={11}
        data-attribute-to={12}
      />
      <div
        className="event-slot-item"
        data-attribute-from={11}
        data-attribute-to={12}
      />
      <div
        className="event-slot-item"
        data-attribute-from={11}
        data-attribute-to={12}
      />
      <div
        className="event-slot-item"
        data-attribute-from={11}
        data-attribute-to={12}
      />
      <div
        className="event-slot-item"
        data-attribute-from={11}
        data-attribute-to={12}
      />
    </div>
    <div
      className="event-slot"
    >
      <div
        className="event-slot-item active"
        data-attribute-from={12}
        data-attribute-to={13}
      />
      <div
        className="event-slot-item"
        data-attribute-from={12}
        data-attribute-to={13}
      />
      <div
        className="event-slot-item"
        data-attribute-from={12}
        data-attribute-to={13}
      />
      <div
        className="event-slot-item"
        data-attribute-from={12}
        data-attribute-to={13}
      />
      <div
        className="event-slot-item"
        data-attribute-from={12}
        data-attribute-to={13}
      />
      <div
        className="event-slot-item"
        data-attribute-from={12}
        data-attribute-to={13}
      />
      <div
        className="event-slot-item"
        data-attribute-from={12}
        data-attribute-to={13}
      />
    </div>
    <div
      className="event-slot"
    >
      <div
        className="event-slot-item active"
        data-attribute-from={13}
        data-attribute-to={14}
      />
      <div
        className="event-slot-item"
        data-attribute-from={13}
        data-attribute-to={14}
      />
      <div
        className="event-slot-item"
        data-attribute-from={13}
        data-attribute-to={14}
      />
      <div
        className="event-slot-item"
        data-attribute-from={13}
        data-attribute-to={14}
      />
      <div
        className="event-slot-item"
        data-attribute-from={13}
        data-attribute-to={14}
      />
      <div
        className="event-slot-item"
        data-attribute-from={13}
        data-attribute-to={14}
      />
      <div
        className="event-slot-item"
        data-attribute-from={13}
        data-attribute-to={14}
      />
    </div>
    <div
      className="event-slot"
    >
      <div
        className="event-slot-item active"
        data-attribute-from={14}
        data-attribute-to={15}
      />
      <div
        className="event-slot-item"
        data-attribute-from={14}
        data-attribute-to={15}
      />
      <div
        className="event-slot-item"
        data-attribute-from={14}
        data-attribute-to={15}
      />
      <div
        className="event-slot-item"
        data-attribute-from={14}
        data-attribute-to={15}
      />
      <div
        className="event-slot-item"
        data-attribute-from={14}
        data-attribute-to={15}
      />
      <div
        className="event-slot-item"
        data-attribute-from={14}
        data-attribute-to={15}
      />
      <div
        className="event-slot-item"
        data-attribute-from={14}
        data-attribute-to={15}
      />
    </div>
    <div
      className="event-slot"
    >
      <div
        className="event-slot-item active"
        data-attribute-from={15}
        data-attribute-to={16}
      />
      <div
        className="event-slot-item"
        data-attribute-from={15}
        data-attribute-to={16}
      />
      <div
        className="event-slot-item"
        data-attribute-from={15}
        data-attribute-to={16}
      />
      <div
        className="event-slot-item"
        data-attribute-from={15}
        data-attribute-to={16}
      />
      <div
        className="event-slot-item"
        data-attribute-from={15}
        data-attribute-to={16}
      />
      <div
        className="event-slot-item"
        data-attribute-from={15}
        data-attribute-to={16}
      />
      <div
        className="event-slot-item"
        data-attribute-from={15}
        data-attribute-to={16}
      />
    </div>
    <div
      className="event-slot"
    >
      <div
        className="event-slot-item active"
        data-attribute-from={16}
        data-attribute-to={17}
      />
      <div
        className="event-slot-item"
        data-attribute-from={16}
        data-attribute-to={17}
      />
      <div
        className="event-slot-item"
        data-attribute-from={16}
        data-attribute-to={17}
      />
      <div
        className="event-slot-item"
        data-attribute-from={16}
        data-attribute-to={17}
      />
      <div
        className="event-slot-item"
        data-attribute-from={16}
        data-attribute-to={17}
      />
      <div
        className="event-slot-item"
        data-attribute-from={16}
        data-attribute-to={17}
      />
      <div
        className="event-slot-item"
        data-attribute-from={16}
        data-attribute-to={17}
      />
    </div>
    <div
      className="event-slot"
    >
      <div
        className="event-slot-item active"
        data-attribute-from={17}
        data-attribute-to={18}
      />
      <div
        className="event-slot-item"
        data-attribute-from={17}
        data-attribute-to={18}
      />
      <div
        className="event-slot-item"
        data-attribute-from={17}
        data-attribute-to={18}
      />
      <div
        className="event-slot-item"
        data-attribute-from={17}
        data-attribute-to={18}
      />
      <div
        className="event-slot-item"
        data-attribute-from={17}
        data-attribute-to={18}
      />
      <div
        className="event-slot-item"
        data-attribute-from={17}
        data-attribute-to={18}
      />
      <div
        className="event-slot-item"
        data-attribute-from={17}
        data-attribute-to={18}
      />
    </div>
    <div
      className="event-slot"
    >
      <div
        className="event-slot-item active"
        data-attribute-from={18}
        data-attribute-to={19}
      />
      <div
        className="event-slot-item"
        data-attribute-from={18}
        data-attribute-to={19}
      />
      <div
        className="event-slot-item"
        data-attribute-from={18}
        data-attribute-to={19}
      />
      <div
        className="event-slot-item"
        data-attribute-from={18}
        data-attribute-to={19}
      />
      <div
        className="event-slot-item"
        data-attribute-from={18}
        data-attribute-to={19}
      />
      <div
        className="event-slot-item"
        data-attribute-from={18}
        data-attribute-to={19}
      />
      <div
        className="event-slot-item"
        data-attribute-from={18}
        data-attribute-to={19}
      />
    </div>
    <div
      className="event-slot"
    >
      <div
        className="event-slot-item active"
        data-attribute-from={19}
        data-attribute-to={20}
      />
      <div
        className="event-slot-item"
        data-attribute-from={19}
        data-attribute-to={20}
      />
      <div
        className="event-slot-item"
        data-attribute-from={19}
        data-attribute-to={20}
      />
      <div
        className="event-slot-item"
        data-attribute-from={19}
        data-attribute-to={20}
      />
      <div
        className="event-slot-item"
        data-attribute-from={19}
        data-attribute-to={20}
      />
      <div
        className="event-slot-item"
        data-attribute-from={19}
        data-attribute-to={20}
      />
      <div
        className="event-slot-item"
        data-attribute-from={19}
        data-attribute-to={20}
      />
    </div>
    <div
      className="event-slot"
    >
      <div
        className="event-slot-item active"
        data-attribute-from={20}
        data-attribute-to={21}
      />
      <div
        className="event-slot-item"
        data-attribute-from={20}
        data-attribute-to={21}
      />
      <div
        className="event-slot-item"
        data-attribute-from={20}
        data-attribute-to={21}
      />
      <div
        className="event-slot-item"
        data-attribute-from={20}
        data-attribute-to={21}
      />
      <div
        className="event-slot-item"
        data-attribute-from={20}
        data-attribute-to={21}
      />
      <div
        className="event-slot-item"
        data-attribute-from={20}
        data-attribute-to={21}
      />
      <div
        className="event-slot-item"
        data-attribute-from={20}
        data-attribute-to={21}
      />
    </div>
    <div
      className="event-slot"
    >
      <div
        className="event-slot-item active"
        data-attribute-from={21}
        data-attribute-to={22}
      />
      <div
        className="event-slot-item"
        data-attribute-from={21}
        data-attribute-to={22}
      />
      <div
        className="event-slot-item"
        data-attribute-from={21}
        data-attribute-to={22}
      />
      <div
        className="event-slot-item"
        data-attribute-from={21}
        data-attribute-to={22}
      />
      <div
        className="event-slot-item"
        data-attribute-from={21}
        data-attribute-to={22}
      />
      <div
        className="event-slot-item"
        data-attribute-from={21}
        data-attribute-to={22}
      />
      <div
        className="event-slot-item"
        data-attribute-from={21}
        data-attribute-to={22}
      />
    </div>
    <div
      className="event-slot"
    >
      <div
        className="event-slot-item active"
        data-attribute-from={22}
        data-attribute-to={23}
      />
      <div
        className="event-slot-item"
        data-attribute-from={22}
        data-attribute-to={23}
      />
      <div
        className="event-slot-item"
        data-attribute-from={22}
        data-attribute-to={23}
      />
      <div
        className="event-slot-item"
        data-attribute-from={22}
        data-attribute-to={23}
      />
      <div
        className="event-slot-item"
        data-attribute-from={22}
        data-attribute-to={23}
      />
      <div
        className="event-slot-item"
        data-attribute-from={22}
        data-attribute-to={23}
      />
      <div
        className="event-slot-item"
        data-attribute-from={22}
        data-attribute-to={23}
      />
    </div>
    <div
      className="event-slot"
    >
      <div
        className="event-slot-item active"
        data-attribute-from={23}
        data-attribute-to={24}
      />
      <div
        className="event-slot-item"
        data-attribute-from={23}
        data-attribute-to={24}
      />
      <div
        className="event-slot-item"
        data-attribute-from={23}
        data-attribute-to={24}
      />
      <div
        className="event-slot-item"
        data-attribute-from={23}
        data-attribute-to={24}
      />
      <div
        className="event-slot-item"
        data-attribute-from={23}
        data-attribute-to={24}
      />
      <div
        className="event-slot-item"
        data-attribute-from={23}
        data-attribute-to={24}
      />
      <div
        className="event-slot-item"
        data-attribute-from={23}
        data-attribute-to={24}
      />
    </div>
  </div>
</div>
`;
